from;to
Gerolfing;Friedrichshofen
Gerolfing;Ingolstadt
Manching;Reichertshofen
Manching;Ingolstadt
Manching;Munchsmunster
Grossmehring;Ingolstadt
Grossmehring;Kosching
Grossmehring;Vohburg
Grossmehring;Oberdolling
Pforring;Neustadt
Pforring;Mindelstetten
Vohburg;Pforring
Bohmfeld;Stammham
Munchsmunster;Vohburg
Munchsmunster;Neustadt
Gaimersheim;Friedrichshofen
Gaimersheim;Eitensheim
Gaimersheim;Ingolstadt
Gaimersheim;Bohmfeld
Bergheim;Weichering
Bergheim;Friedrichshofen
Eitensheim;Adelschlag
Eitensheim;Eichstatt
Eitensheim;Eitensheim
Denkendorf;Stammham
Denkendorf;Ingolstadt
Weichering;Neuburg
Weichering;Bergheim
Weichering;Manching
Kosching;Ingolstadt
Kosching;Stammham
Friedrichshofen;Gerolfing
Friedrichshofen;Bergheim
Friedrichshofen;Gaimersheim
Friedrichshofen;Ingolstadt
Friedrichshofen;Eitensheim
Neuburg;Weichering
#